%YAML 1.1
%TAG !u! tag:unity3d.com,2011:
--- !u!29 &1
OcclusionCullingSettings:
  m_ObjectHideFlags: 0
  serializedVersion: 2
  m_OcclusionBakeSettings:
    smallestOccluder: 5
    smallestHole: 0.25
    backfaceThreshold: 100
  m_SceneGUID: 00000000000000000000000000000000
  m_OcclusionCullingData: {fileID: 0}
--- !u!104 &2
RenderSettings:
  m_ObjectHideFlags: 0
  serializedVersion: 9
  m_Fog: 0
  m_FogColor: {r: 0.5, g: 0.5, b: 0.5, a: 1}
  m_FogMode: 3
  m_FogDensity: 0.01
  m_LinearFogStart: 0
  m_LinearFogEnd: 300
  m_AmbientSkyColor: {r: 0.5927376, g: 0.6215735, b: 0.6792453, a: 1}
  m_AmbientEquatorColor: {r: 0.114, g: 0.125, b: 0.133, a: 1}
  m_AmbientGroundColor: {r: 0.047, g: 0.043, b: 0.035, a: 1}
  m_AmbientIntensity: 1
  m_AmbientMode: 3
  m_SubtractiveShadowColor: {r: 0.42, g: 0.478, b: 0.627, a: 1}
  m_SkyboxMaterial: {fileID: 10304, guid: 0000000000000000f000000000000000, type: 0}
  m_HaloStrength: 0.5
  m_FlareStrength: 1
  m_FlareFadeSpeed: 3
  m_HaloTexture: {fileID: 0}
  m_SpotCookie: {fileID: 10001, guid: 0000000000000000e000000000000000, type: 0}
  m_DefaultReflectionMode: 0
  m_DefaultReflectionResolution: 128
  m_ReflectionBounces: 1
  m_ReflectionIntensity: 1
  m_CustomReflection: {fileID: 0}
  m_Sun: {fileID: 705507994}
  m_IndirectSpecularColor: {r: 0.4427576, g: 0.49189818, b: 0.57168204, a: 1}
  m_UseRadianceAmbientProbe: 0
--- !u!157 &3
LightmapSettings:
  m_ObjectHideFlags: 0
  serializedVersion: 12
  m_GIWorkflowMode: 1
  m_GISettings:
    serializedVersion: 2
    m_BounceScale: 1
    m_IndirectOutputScale: 1
    m_AlbedoBoost: 1
    m_EnvironmentLightingMode: 0
    m_EnableBakedLightmaps: 1
    m_EnableRealtimeLightmaps: 0
  m_LightmapEditorSettings:
    serializedVersion: 12
    m_Resolution: 2
    m_BakeResolution: 40
    m_AtlasSize: 1024
    m_AO: 0
    m_AOMaxDistance: 1
    m_CompAOExponent: 1
    m_CompAOExponentDirect: 0
    m_ExtractAmbientOcclusion: 0
    m_Padding: 2
    m_LightmapParameters: {fileID: 0}
    m_LightmapsBakeMode: 1
    m_TextureCompression: 1
    m_FinalGather: 0
    m_FinalGatherFiltering: 1
    m_FinalGatherRayCount: 256
    m_ReflectionCompression: 2
    m_MixedBakeMode: 2
    m_BakeBackend: 1
    m_PVRSampling: 1
    m_PVRDirectSampleCount: 32
    m_PVRSampleCount: 500
    m_PVRBounces: 2
    m_PVREnvironmentSampleCount: 500
    m_PVREnvironmentReferencePointCount: 2048
    m_PVRFilteringMode: 2
    m_PVRDenoiserTypeDirect: 0
    m_PVRDenoiserTypeIndirect: 0
    m_PVRDenoiserTypeAO: 0
    m_PVRFilterTypeDirect: 0
    m_PVRFilterTypeIndirect: 0
    m_PVRFilterTypeAO: 0
    m_PVREnvironmentMIS: 0
    m_PVRCulling: 1
    m_PVRFilteringGaussRadiusDirect: 1
    m_PVRFilteringGaussRadiusIndirect: 5
    m_PVRFilteringGaussRadiusAO: 2
    m_PVRFilteringAtrousPositionSigmaDirect: 0.5
    m_PVRFilteringAtrousPositionSigmaIndirect: 2
    m_PVRFilteringAtrousPositionSigmaAO: 1
    m_ExportTrainingData: 0
    m_TrainingDataDestination: TrainingData
    m_LightProbeSampleCountMultiplier: 4
  m_LightingDataAsset: {fileID: 0}
  m_LightingSettings: {fileID: 4890085278179872738, guid: 93568a2b5a7cc394a950a914322555aa, type: 2}
--- !u!196 &4
NavMeshSettings:
  serializedVersion: 2
  m_ObjectHideFlags: 0
  m_BuildSettings:
    serializedVersion: 2
    agentTypeID: 0
    agentRadius: 0.5
    agentHeight: 2
    agentSlope: 45
    agentClimb: 0.4
    ledgeDropHeight: 0
    maxJumpAcrossDistance: 0
    minRegionArea: 2
    manualCellSize: 0
    cellSize: 0.16666667
    manualTileSize: 0
    tileSize: 256
    accuratePlacement: 0
    maxJobWorkers: 0
    preserveTilesOutsideBounds: 0
    debug:
      m_Flags: 0
  m_NavMeshData: {fileID: 0}
--- !u!1001 &127517428
PrefabInstance:
  m_ObjectHideFlags: 0
  serializedVersion: 2
  m_Modification:
    m_TransformParent: {fileID: 0}
    m_Modifications:
    - target: {fileID: 6308687010905550314, guid: a1ee354eade1c66498bf68dfb34fb993, type: 3}
      propertyPath: m_Name
      value: 'arena '
      objectReference: {fileID: 0}
    - target: {fileID: 6685353703225243472, guid: a1ee354eade1c66498bf68dfb34fb993, type: 3}
      propertyPath: m_RootOrder
      value: 1
      objectReference: {fileID: 0}
    - target: {fileID: 6685353703225243472, guid: a1ee354eade1c66498bf68dfb34fb993, type: 3}
      propertyPath: m_LocalPosition.x
      value: 0
      objectReference: {fileID: 0}
    - target: {fileID: 6685353703225243472, guid: a1ee354eade1c66498bf68dfb34fb993, type: 3}
      propertyPath: m_LocalPosition.y
      value: -2
      objectReference: {fileID: 0}
    - target: {fileID: 6685353703225243472, guid: a1ee354eade1c66498bf68dfb34fb993, type: 3}
      propertyPath: m_LocalPosition.z
      value: 0
      objectReference: {fileID: 0}
    - target: {fileID: 6685353703225243472, guid: a1ee354eade1c66498bf68dfb34fb993, type: 3}
      propertyPath: m_LocalRotation.w
      value: 1
      objectReference: {fileID: 0}
    - target: {fileID: 6685353703225243472, guid: a1ee354eade1c66498bf68dfb34fb993, type: 3}
      propertyPath: m_LocalRotation.x
      value: 0
      objectReference: {fileID: 0}
    - target: {fileID: 6685353703225243472, guid: a1ee354eade1c66498bf68dfb34fb993, type: 3}
      propertyPath: m_LocalRotation.y
      value: 0
      objectReference: {fileID: 0}
    - target: {fileID: 6685353703225243472, guid: a1ee354eade1c66498bf68dfb34fb993, type: 3}
      propertyPath: m_LocalRotation.z
      value: 0
      objectReference: {fileID: 0}
    - target: {fileID: 6685353703225243472, guid: a1ee354eade1c66498bf68dfb34fb993, type: 3}
      propertyPath: m_LocalEulerAnglesHint.x
      value: 0
      objectReference: {fileID: 0}
    - target: {fileID: 6685353703225243472, guid: a1ee354eade1c66498bf68dfb34fb993, type: 3}
      propertyPath: m_LocalEulerAnglesHint.y
      value: 0
      objectReference: {fileID: 0}
    - target: {fileID: 6685353703225243472, guid: a1ee354eade1c66498bf68dfb34fb993, type: 3}
      propertyPath: m_LocalEulerAnglesHint.z
      value: 0
      objectReference: {fileID: 0}
    - target: {fileID: 7357770630942606843, guid: a1ee354eade1c66498bf68dfb34fb993, type: 3}
      propertyPath: m_LocalPosition.y
      value: 0
      objectReference: {fileID: 0}
    m_RemovedComponents: []
  m_SourcePrefab: {fileID: 100100000, guid: a1ee354eade1c66498bf68dfb34fb993, type: 3}
--- !u!1001 &279696105
PrefabInstance:
  m_ObjectHideFlags: 0
  serializedVersion: 2
  m_Modification:
    m_TransformParent: {fileID: 0}
    m_Modifications:
    - target: {fileID: 2869551698884854424, guid: 264ece7fab8fe314f8e34f4488760a9b, type: 3}
      propertyPath: speed
      value: 1
      objectReference: {fileID: 0}
    - target: {fileID: 2869551698884854424, guid: 264ece7fab8fe314f8e34f4488760a9b, type: 3}
      propertyPath: m_Enabled
      value: 1
      objectReference: {fileID: 0}
    - target: {fileID: 2869551698884854424, guid: 264ece7fab8fe314f8e34f4488760a9b, type: 3}
      propertyPath: canBeLaunched
      value: 0
      objectReference: {fileID: 0}
    - target: {fileID: 2869551698884854425, guid: 264ece7fab8fe314f8e34f4488760a9b, type: 3}
      propertyPath: changeOnce
      value: 1
      objectReference: {fileID: 0}
    - target: {fileID: 2869551698884854425, guid: 264ece7fab8fe314f8e34f4488760a9b, type: 3}
      propertyPath: totalColors
      value: 2
      objectReference: {fileID: 0}
    - target: {fileID: 2869551698884854425, guid: 264ece7fab8fe314f8e34f4488760a9b, type: 3}
      propertyPath: currentColor.b
      value: 1
      objectReference: {fileID: 0}
    - target: {fileID: 2869551698884854425, guid: 264ece7fab8fe314f8e34f4488760a9b, type: 3}
      propertyPath: currentColor.g
      value: 1
      objectReference: {fileID: 0}
    - target: {fileID: 2869551698884854425, guid: 264ece7fab8fe314f8e34f4488760a9b, type: 3}
      propertyPath: currentColor.r
      value: 1
      objectReference: {fileID: 0}
    - target: {fileID: 2869551698884854425, guid: 264ece7fab8fe314f8e34f4488760a9b, type: 3}
      propertyPath: dontChangeColor
      value: 0
      objectReference: {fileID: 0}
    - target: {fileID: 2869551698884854425, guid: 264ece7fab8fe314f8e34f4488760a9b, type: 3}
      propertyPath: changeColorOneTime
      value: 1
      objectReference: {fileID: 0}
    - target: {fileID: 2869551698884854425, guid: 264ece7fab8fe314f8e34f4488760a9b, type: 3}
      propertyPath: colorOneFromManager
      value: 2
      objectReference: {fileID: 0}
    - target: {fileID: 2869551698884854425, guid: 264ece7fab8fe314f8e34f4488760a9b, type: 3}
      propertyPath: colorZeroFromManager
      value: 0
      objectReference: {fileID: 0}
    - target: {fileID: 2869551698884854429, guid: 264ece7fab8fe314f8e34f4488760a9b, type: 3}
      propertyPath: m_Materials.Array.data[0]
      value: 
      objectReference: {fileID: 2100000, guid: 8185bac226b0edb44bd9b6d8067a3ac8, type: 2}
    - target: {fileID: 2869551698884854431, guid: 264ece7fab8fe314f8e34f4488760a9b, type: 3}
      propertyPath: m_RootOrder
      value: 4
      objectReference: {fileID: 0}
    - target: {fileID: 2869551698884854431, guid: 264ece7fab8fe314f8e34f4488760a9b, type: 3}
      propertyPath: m_LocalPosition.x
      value: -0.4
      objectReference: {fileID: 0}
    - target: {fileID: 2869551698884854431, guid: 264ece7fab8fe314f8e34f4488760a9b, type: 3}
      propertyPath: m_LocalPosition.y
      value: 0
      objectReference: {fileID: 0}
    - target: {fileID: 2869551698884854431, guid: 264ece7fab8fe314f8e34f4488760a9b, type: 3}
      propertyPath: m_LocalPosition.z
      value: -8.9
      objectReference: {fileID: 0}
    - target: {fileID: 2869551698884854431, guid: 264ece7fab8fe314f8e34f4488760a9b, type: 3}
      propertyPath: m_LocalRotation.w
      value: 1
      objectReference: {fileID: 0}
    - target: {fileID: 2869551698884854431, guid: 264ece7fab8fe314f8e34f4488760a9b, type: 3}
      propertyPath: m_LocalRotation.x
      value: 0
      objectReference: {fileID: 0}
    - target: {fileID: 2869551698884854431, guid: 264ece7fab8fe314f8e34f4488760a9b, type: 3}
      propertyPath: m_LocalRotation.y
      value: 0
      objectReference: {fileID: 0}
    - target: {fileID: 2869551698884854431, guid: 264ece7fab8fe314f8e34f4488760a9b, type: 3}
      propertyPath: m_LocalRotation.z
      value: 0
      objectReference: {fileID: 0}
    - target: {fileID: 2869551698884854431, guid: 264ece7fab8fe314f8e34f4488760a9b, type: 3}
      propertyPath: m_LocalEulerAnglesHint.x
      value: 0
      objectReference: {fileID: 0}
    - target: {fileID: 2869551698884854431, guid: 264ece7fab8fe314f8e34f4488760a9b, type: 3}
      propertyPath: m_LocalEulerAnglesHint.y
      value: 0
      objectReference: {fileID: 0}
    - target: {fileID: 2869551698884854431, guid: 264ece7fab8fe314f8e34f4488760a9b, type: 3}
      propertyPath: m_LocalEulerAnglesHint.z
      value: 0
      objectReference: {fileID: 0}
    - target: {fileID: 2869551698884854434, guid: 264ece7fab8fe314f8e34f4488760a9b, type: 3}
      propertyPath: m_Name
      value: BallAndro (2)
      objectReference: {fileID: 0}
    m_RemovedComponents: []
  m_SourcePrefab: {fileID: 100100000, guid: 264ece7fab8fe314f8e34f4488760a9b, type: 3}
--- !u!1001 &525606412
PrefabInstance:
  m_ObjectHideFlags: 0
  serializedVersion: 2
  m_Modification:
    m_TransformParent: {fileID: 1538072846}
    m_Modifications:
    - target: {fileID: 668365337374419009, guid: 8b91fc7ade0249a4e9bb6a47c06cc90b, type: 3}
      propertyPath: m_Name
      value: NextLevel
      objectReference: {fileID: 0}
    - target: {fileID: 668365337374419009, guid: 8b91fc7ade0249a4e9bb6a47c06cc90b, type: 3}
      propertyPath: m_IsActive
      value: 0
      objectReference: {fileID: 0}
    - target: {fileID: 668365337374419014, guid: 8b91fc7ade0249a4e9bb6a47c06cc90b, type: 3}
      propertyPath: m_Pivot.x
      value: 0.5
      objectReference: {fileID: 0}
    - target: {fileID: 668365337374419014, guid: 8b91fc7ade0249a4e9bb6a47c06cc90b, type: 3}
      propertyPath: m_Pivot.y
      value: 0.5
      objectReference: {fileID: 0}
    - target: {fileID: 668365337374419014, guid: 8b91fc7ade0249a4e9bb6a47c06cc90b, type: 3}
      propertyPath: m_RootOrder
      value: 1
      objectReference: {fileID: 0}
    - target: {fileID: 668365337374419014, guid: 8b91fc7ade0249a4e9bb6a47c06cc90b, type: 3}
      propertyPath: m_AnchorMax.x
      value: 1
      objectReference: {fileID: 0}
    - target: {fileID: 668365337374419014, guid: 8b91fc7ade0249a4e9bb6a47c06cc90b, type: 3}
      propertyPath: m_AnchorMax.y
      value: 1
      objectReference: {fileID: 0}
    - target: {fileID: 668365337374419014, guid: 8b91fc7ade0249a4e9bb6a47c06cc90b, type: 3}
      propertyPath: m_AnchorMin.x
      value: 0
      objectReference: {fileID: 0}
    - target: {fileID: 668365337374419014, guid: 8b91fc7ade0249a4e9bb6a47c06cc90b, type: 3}
      propertyPath: m_AnchorMin.y
      value: 0
      objectReference: {fileID: 0}
    - target: {fileID: 668365337374419014, guid: 8b91fc7ade0249a4e9bb6a47c06cc90b, type: 3}
      propertyPath: m_SizeDelta.x
      value: 0
      objectReference: {fileID: 0}
    - target: {fileID: 668365337374419014, guid: 8b91fc7ade0249a4e9bb6a47c06cc90b, type: 3}
      propertyPath: m_SizeDelta.y
      value: 0
      objectReference: {fileID: 0}
    - target: {fileID: 668365337374419014, guid: 8b91fc7ade0249a4e9bb6a47c06cc90b, type: 3}
      propertyPath: m_LocalPosition.x
      value: 0
      objectReference: {fileID: 0}
    - target: {fileID: 668365337374419014, guid: 8b91fc7ade0249a4e9bb6a47c06cc90b, type: 3}
      propertyPath: m_LocalPosition.y
      value: 0
      objectReference: {fileID: 0}
    - target: {fileID: 668365337374419014, guid: 8b91fc7ade0249a4e9bb6a47c06cc90b, type: 3}
      propertyPath: m_LocalPosition.z
      value: 0
      objectReference: {fileID: 0}
    - target: {fileID: 668365337374419014, guid: 8b91fc7ade0249a4e9bb6a47c06cc90b, type: 3}
      propertyPath: m_LocalRotation.w
      value: 1
      objectReference: {fileID: 0}
    - target: {fileID: 668365337374419014, guid: 8b91fc7ade0249a4e9bb6a47c06cc90b, type: 3}
      propertyPath: m_LocalRotation.x
      value: -0
      objectReference: {fileID: 0}
    - target: {fileID: 668365337374419014, guid: 8b91fc7ade0249a4e9bb6a47c06cc90b, type: 3}
      propertyPath: m_LocalRotation.y
      value: -0
      objectReference: {fileID: 0}
    - target: {fileID: 668365337374419014, guid: 8b91fc7ade0249a4e9bb6a47c06cc90b, type: 3}
      propertyPath: m_LocalRotation.z
      value: -0
      objectReference: {fileID: 0}
    - target: {fileID: 668365337374419014, guid: 8b91fc7ade0249a4e9bb6a47c06cc90b, type: 3}
      propertyPath: m_AnchoredPosition.x
      value: 0
      objectReference: {fileID: 0}
    - target: {fileID: 668365337374419014, guid: 8b91fc7ade0249a4e9bb6a47c06cc90b, type: 3}
      propertyPath: m_AnchoredPosition.y
      value: 0
      objectReference: {fileID: 0}
    - target: {fileID: 668365337374419014, guid: 8b91fc7ade0249a4e9bb6a47c06cc90b, type: 3}
      propertyPath: m_LocalEulerAnglesHint.x
      value: 0
      objectReference: {fileID: 0}
    - target: {fileID: 668365337374419014, guid: 8b91fc7ade0249a4e9bb6a47c06cc90b, type: 3}
      propertyPath: m_LocalEulerAnglesHint.y
      value: 0
      objectReference: {fileID: 0}
    - target: {fileID: 668365337374419014, guid: 8b91fc7ade0249a4e9bb6a47c06cc90b, type: 3}
      propertyPath: m_LocalEulerAnglesHint.z
      value: 0
      objectReference: {fileID: 0}
    m_RemovedComponents: []
  m_SourcePrefab: {fileID: 100100000, guid: 8b91fc7ade0249a4e9bb6a47c06cc90b, type: 3}
--- !u!224 &525606413 stripped
RectTransform:
  m_CorrespondingSourceObject: {fileID: 668365337374419014, guid: 8b91fc7ade0249a4e9bb6a47c06cc90b, type: 3}
  m_PrefabInstance: {fileID: 525606412}
  m_PrefabAsset: {fileID: 0}
--- !u!1 &525606414 stripped
GameObject:
  m_CorrespondingSourceObject: {fileID: 668365337374419009, guid: 8b91fc7ade0249a4e9bb6a47c06cc90b, type: 3}
  m_PrefabInstance: {fileID: 525606412}
  m_PrefabAsset: {fileID: 0}
--- !u!1001 &581942283
PrefabInstance:
  m_ObjectHideFlags: 0
  serializedVersion: 2
  m_Modification:
    m_TransformParent: {fileID: 0}
    m_Modifications:
    - target: {fileID: 3735881444417689444, guid: a5b6912137e570d428899ddab3ba3c9b, type: 3}
      propertyPath: color0.b
      value: 1
      objectReference: {fileID: 0}
    - target: {fileID: 3735881444417689444, guid: a5b6912137e570d428899ddab3ba3c9b, type: 3}
      propertyPath: color0.g
      value: 1
      objectReference: {fileID: 0}
    - target: {fileID: 3735881444417689444, guid: a5b6912137e570d428899ddab3ba3c9b, type: 3}
      propertyPath: color0.r
      value: 1
      objectReference: {fileID: 0}
    - target: {fileID: 3735881444417689444, guid: a5b6912137e570d428899ddab3ba3c9b, type: 3}
      propertyPath: color1.b
      value: 0.24313726
      objectReference: {fileID: 0}
    - target: {fileID: 3735881444417689444, guid: a5b6912137e570d428899ddab3ba3c9b, type: 3}
      propertyPath: color1.g
      value: 0.67058825
      objectReference: {fileID: 0}
    - target: {fileID: 3735881444417689444, guid: a5b6912137e570d428899ddab3ba3c9b, type: 3}
      propertyPath: color1.r
      value: 0.27450982
      objectReference: {fileID: 0}
    - target: {fileID: 3735881444417689444, guid: a5b6912137e570d428899ddab3ba3c9b, type: 3}
      propertyPath: color2.b
      value: 0.59607846
      objectReference: {fileID: 0}
    - target: {fileID: 3735881444417689444, guid: a5b6912137e570d428899ddab3ba3c9b, type: 3}
      propertyPath: color2.g
      value: 0.25490198
      objectReference: {fileID: 0}
    - target: {fileID: 3735881444417689444, guid: a5b6912137e570d428899ddab3ba3c9b, type: 3}
      propertyPath: color2.r
      value: 0.3019608
      objectReference: {fileID: 0}
    - target: {fileID: 3735881444417689444, guid: a5b6912137e570d428899ddab3ba3c9b, type: 3}
      propertyPath: color3.b
      value: 0.5882353
      objectReference: {fileID: 0}
    - target: {fileID: 3735881444417689444, guid: a5b6912137e570d428899ddab3ba3c9b, type: 3}
      propertyPath: color3.g
      value: 0.24313726
      objectReference: {fileID: 0}
    - target: {fileID: 3735881444417689444, guid: a5b6912137e570d428899ddab3ba3c9b, type: 3}
      propertyPath: color3.r
      value: 0.7058824
      objectReference: {fileID: 0}
    - target: {fileID: 3735881444417689444, guid: a5b6912137e570d428899ddab3ba3c9b, type: 3}
      propertyPath: winButton
      value: 
      objectReference: {fileID: 525606414}
    - target: {fileID: 3735881444417689444, guid: a5b6912137e570d428899ddab3ba3c9b, type: 3}
      propertyPath: pauseButton
      value: 
      objectReference: {fileID: 652053096}
    - target: {fileID: 3735881444417689444, guid: a5b6912137e570d428899ddab3ba3c9b, type: 3}
      propertyPath: colorOneAmountToWin
      value: 2
      objectReference: {fileID: 0}
    - target: {fileID: 3735881444417689444, guid: a5b6912137e570d428899ddab3ba3c9b, type: 3}
      propertyPath: colorTwoAmountToWin
      value: 1
      objectReference: {fileID: 0}
    - target: {fileID: 3735881444417689444, guid: a5b6912137e570d428899ddab3ba3c9b, type: 3}
      propertyPath: colorZeroAmountToWin
      value: 0
      objectReference: {fileID: 0}
    - target: {fileID: 3735881444417689444, guid: a5b6912137e570d428899ddab3ba3c9b, type: 3}
      propertyPath: colorThreeAmountToWin
      value: 1
      objectReference: {fileID: 0}
    - target: {fileID: 3735881444417689445, guid: a5b6912137e570d428899ddab3ba3c9b, type: 3}
      propertyPath: m_RootOrder
      value: 10
      objectReference: {fileID: 0}
    - target: {fileID: 3735881444417689445, guid: a5b6912137e570d428899ddab3ba3c9b, type: 3}
      propertyPath: m_LocalPosition.x
      value: -0.6309564
      objectReference: {fileID: 0}
    - target: {fileID: 3735881444417689445, guid: a5b6912137e570d428899ddab3ba3c9b, type: 3}
      propertyPath: m_LocalPosition.y
      value: -16.325554
      objectReference: {fileID: 0}
    - target: {fileID: 3735881444417689445, guid: a5b6912137e570d428899ddab3ba3c9b, type: 3}
      propertyPath: m_LocalPosition.z
      value: -1.9285614
      objectReference: {fileID: 0}
    - target: {fileID: 3735881444417689445, guid: a5b6912137e570d428899ddab3ba3c9b, type: 3}
      propertyPath: m_LocalRotation.w
      value: 1
      objectReference: {fileID: 0}
    - target: {fileID: 3735881444417689445, guid: a5b6912137e570d428899ddab3ba3c9b, type: 3}
      propertyPath: m_LocalRotation.x
      value: 0
      objectReference: {fileID: 0}
    - target: {fileID: 3735881444417689445, guid: a5b6912137e570d428899ddab3ba3c9b, type: 3}
      propertyPath: m_LocalRotation.y
      value: 0
      objectReference: {fileID: 0}
    - target: {fileID: 3735881444417689445, guid: a5b6912137e570d428899ddab3ba3c9b, type: 3}
      propertyPath: m_LocalRotation.z
      value: 0
      objectReference: {fileID: 0}
    - target: {fileID: 3735881444417689445, guid: a5b6912137e570d428899ddab3ba3c9b, type: 3}
      propertyPath: m_LocalEulerAnglesHint.x
      value: 0
      objectReference: {fileID: 0}
    - target: {fileID: 3735881444417689445, guid: a5b6912137e570d428899ddab3ba3c9b, type: 3}
      propertyPath: m_LocalEulerAnglesHint.y
      value: 0
      objectReference: {fileID: 0}
    - target: {fileID: 3735881444417689445, guid: a5b6912137e570d428899ddab3ba3c9b, type: 3}
      propertyPath: m_LocalEulerAnglesHint.z
      value: 0
      objectReference: {fileID: 0}
    - target: {fileID: 3735881444417689447, guid: a5b6912137e570d428899ddab3ba3c9b, type: 3}
      propertyPath: m_Name
      value: GameManager
      objectReference: {fileID: 0}
    m_RemovedComponents: []
  m_SourcePrefab: {fileID: 100100000, guid: a5b6912137e570d428899ddab3ba3c9b, type: 3}
--- !u!1001 &601735356
PrefabInstance:
  m_ObjectHideFlags: 0
  serializedVersion: 2
  m_Modification:
    m_TransformParent: {fileID: 0}
    m_Modifications:
    - target: {fileID: 2869551698884854424, guid: 264ece7fab8fe314f8e34f4488760a9b, type: 3}
      propertyPath: speed
      value: 0.425
      objectReference: {fileID: 0}
    - target: {fileID: 2869551698884854424, guid: 264ece7fab8fe314f8e34f4488760a9b, type: 3}
      propertyPath: canBeLaunched
      value: 1
      objectReference: {fileID: 0}
    - target: {fileID: 2869551698884854425, guid: 264ece7fab8fe314f8e34f4488760a9b, type: 3}
      propertyPath: changeOnce
      value: 1
      objectReference: {fileID: 0}
    - target: {fileID: 2869551698884854425, guid: 264ece7fab8fe314f8e34f4488760a9b, type: 3}
      propertyPath: startColor
      value: 2
      objectReference: {fileID: 0}
    - target: {fileID: 2869551698884854425, guid: 264ece7fab8fe314f8e34f4488760a9b, type: 3}
      propertyPath: totalColors
      value: 1
      objectReference: {fileID: 0}
    - target: {fileID: 2869551698884854425, guid: 264ece7fab8fe314f8e34f4488760a9b, type: 3}
      propertyPath: currentColor.b
      value: 0.17590779
      objectReference: {fileID: 0}
    - target: {fileID: 2869551698884854425, guid: 264ece7fab8fe314f8e34f4488760a9b, type: 3}
      propertyPath: currentColor.g
      value: 0.17590779
      objectReference: {fileID: 0}
    - target: {fileID: 2869551698884854425, guid: 264ece7fab8fe314f8e34f4488760a9b, type: 3}
      propertyPath: currentColor.r
      value: 0.6320754
      objectReference: {fileID: 0}
    - target: {fileID: 2869551698884854425, guid: 264ece7fab8fe314f8e34f4488760a9b, type: 3}
      propertyPath: dontChangeColor
      value: 1
      objectReference: {fileID: 0}
    - target: {fileID: 2869551698884854425, guid: 264ece7fab8fe314f8e34f4488760a9b, type: 3}
      propertyPath: colorFadeDuration
      value: 1
      objectReference: {fileID: 0}
    - target: {fileID: 2869551698884854425, guid: 264ece7fab8fe314f8e34f4488760a9b, type: 3}
      propertyPath: changeColorOneTime
      value: 0
      objectReference: {fileID: 0}
    - target: {fileID: 2869551698884854425, guid: 264ece7fab8fe314f8e34f4488760a9b, type: 3}
      propertyPath: colorOneFromManager
      value: 1
      objectReference: {fileID: 0}
    - target: {fileID: 2869551698884854425, guid: 264ece7fab8fe314f8e34f4488760a9b, type: 3}
      propertyPath: colorTwoFromManager
      value: 2
      objectReference: {fileID: 0}
    - target: {fileID: 2869551698884854425, guid: 264ece7fab8fe314f8e34f4488760a9b, type: 3}
      propertyPath: colorZeroFromManager
      value: 1
      objectReference: {fileID: 0}
    - target: {fileID: 2869551698884854425, guid: 264ece7fab8fe314f8e34f4488760a9b, type: 3}
      propertyPath: colorThreeFromManager
      value: 3
      objectReference: {fileID: 0}
    - target: {fileID: 2869551698884854429, guid: 264ece7fab8fe314f8e34f4488760a9b, type: 3}
      propertyPath: m_Materials.Array.size
      value: 1
      objectReference: {fileID: 0}
    - target: {fileID: 2869551698884854429, guid: 264ece7fab8fe314f8e34f4488760a9b, type: 3}
      propertyPath: m_Materials.Array.data[0]
      value: 
      objectReference: {fileID: 2100000, guid: 8185bac226b0edb44bd9b6d8067a3ac8, type: 2}
    - target: {fileID: 2869551698884854429, guid: 264ece7fab8fe314f8e34f4488760a9b, type: 3}
      propertyPath: m_Materials.Array.data[1]
      value: 
      objectReference: {fileID: 2100000, guid: c98adfafaed026348bd3de6c7e2f789a, type: 2}
    - target: {fileID: 2869551698884854431, guid: 264ece7fab8fe314f8e34f4488760a9b, type: 3}
      propertyPath: m_RootOrder
      value: 7
      objectReference: {fileID: 0}
    - target: {fileID: 2869551698884854431, guid: 264ece7fab8fe314f8e34f4488760a9b, type: 3}
      propertyPath: m_LocalScale.x
      value: 5
      objectReference: {fileID: 0}
    - target: {fileID: 2869551698884854431, guid: 264ece7fab8fe314f8e34f4488760a9b, type: 3}
      propertyPath: m_LocalScale.y
      value: 5
      objectReference: {fileID: 0}
    - target: {fileID: 2869551698884854431, guid: 264ece7fab8fe314f8e34f4488760a9b, type: 3}
      propertyPath: m_LocalScale.z
      value: 5
      objectReference: {fileID: 0}
    - target: {fileID: 2869551698884854431, guid: 264ece7fab8fe314f8e34f4488760a9b, type: 3}
      propertyPath: m_LocalPosition.x
      value: 10.62
      objectReference: {fileID: 0}
    - target: {fileID: 2869551698884854431, guid: 264ece7fab8fe314f8e34f4488760a9b, type: 3}
      propertyPath: m_LocalPosition.y
      value: -1
      objectReference: {fileID: 0}
    - target: {fileID: 2869551698884854431, guid: 264ece7fab8fe314f8e34f4488760a9b, type: 3}
      propertyPath: m_LocalPosition.z
      value: 0.18
      objectReference: {fileID: 0}
    - target: {fileID: 2869551698884854431, guid: 264ece7fab8fe314f8e34f4488760a9b, type: 3}
      propertyPath: m_LocalRotation.w
      value: 1
      objectReference: {fileID: 0}
    - target: {fileID: 2869551698884854431, guid: 264ece7fab8fe314f8e34f4488760a9b, type: 3}
      propertyPath: m_LocalRotation.x
      value: 0
      objectReference: {fileID: 0}
    - target: {fileID: 2869551698884854431, guid: 264ece7fab8fe314f8e34f4488760a9b, type: 3}
      propertyPath: m_LocalRotation.y
      value: 0
      objectReference: {fileID: 0}
    - target: {fileID: 2869551698884854431, guid: 264ece7fab8fe314f8e34f4488760a9b, type: 3}
      propertyPath: m_LocalRotation.z
      value: 0
      objectReference: {fileID: 0}
    - target: {fileID: 2869551698884854431, guid: 264ece7fab8fe314f8e34f4488760a9b, type: 3}
      propertyPath: m_LocalEulerAnglesHint.x
      value: 0
      objectReference: {fileID: 0}
    - target: {fileID: 2869551698884854431, guid: 264ece7fab8fe314f8e34f4488760a9b, type: 3}
      propertyPath: m_LocalEulerAnglesHint.y
      value: 0
      objectReference: {fileID: 0}
    - target: {fileID: 2869551698884854431, guid: 264ece7fab8fe314f8e34f4488760a9b, type: 3}
      propertyPath: m_LocalEulerAnglesHint.z
      value: 0
      objectReference: {fileID: 0}
    - target: {fileID: 2869551698884854434, guid: 264ece7fab8fe314f8e34f4488760a9b, type: 3}
      propertyPath: m_Name
      value: BallAndro (1)
      objectReference: {fileID: 0}
    m_RemovedComponents: []
  m_SourcePrefab: {fileID: 100100000, guid: 264ece7fab8fe314f8e34f4488760a9b, type: 3}
--- !u!1001 &652053094
PrefabInstance:
  m_ObjectHideFlags: 0
  serializedVersion: 2
  m_Modification:
    m_TransformParent: {fileID: 1538072846}
    m_Modifications:
    - target: {fileID: 8336569650889522288, guid: d7cadeac6e740474f90fcdd692580e4a, type: 3}
      propertyPath: m_Name
      value: Pause
      objectReference: {fileID: 0}
    - target: {fileID: 8336569650889522289, guid: d7cadeac6e740474f90fcdd692580e4a, type: 3}
      propertyPath: m_Pivot.x
      value: 0.5
      objectReference: {fileID: 0}
    - target: {fileID: 8336569650889522289, guid: d7cadeac6e740474f90fcdd692580e4a, type: 3}
      propertyPath: m_Pivot.y
      value: 0.5
      objectReference: {fileID: 0}
    - target: {fileID: 8336569650889522289, guid: d7cadeac6e740474f90fcdd692580e4a, type: 3}
      propertyPath: m_RootOrder
      value: 0
      objectReference: {fileID: 0}
    - target: {fileID: 8336569650889522289, guid: d7cadeac6e740474f90fcdd692580e4a, type: 3}
      propertyPath: m_AnchorMax.x
      value: 0.5
      objectReference: {fileID: 0}
    - target: {fileID: 8336569650889522289, guid: d7cadeac6e740474f90fcdd692580e4a, type: 3}
      propertyPath: m_AnchorMax.y
      value: 0.5
      objectReference: {fileID: 0}
    - target: {fileID: 8336569650889522289, guid: d7cadeac6e740474f90fcdd692580e4a, type: 3}
      propertyPath: m_AnchorMin.x
      value: 0.5
      objectReference: {fileID: 0}
    - target: {fileID: 8336569650889522289, guid: d7cadeac6e740474f90fcdd692580e4a, type: 3}
      propertyPath: m_AnchorMin.y
      value: 0.5
      objectReference: {fileID: 0}
    - target: {fileID: 8336569650889522289, guid: d7cadeac6e740474f90fcdd692580e4a, type: 3}
      propertyPath: m_SizeDelta.x
      value: 100
      objectReference: {fileID: 0}
    - target: {fileID: 8336569650889522289, guid: d7cadeac6e740474f90fcdd692580e4a, type: 3}
      propertyPath: m_SizeDelta.y
      value: 100
      objectReference: {fileID: 0}
    - target: {fileID: 8336569650889522289, guid: d7cadeac6e740474f90fcdd692580e4a, type: 3}
      propertyPath: m_LocalPosition.x
      value: 0
      objectReference: {fileID: 0}
    - target: {fileID: 8336569650889522289, guid: d7cadeac6e740474f90fcdd692580e4a, type: 3}
      propertyPath: m_LocalPosition.y
      value: 0
      objectReference: {fileID: 0}
    - target: {fileID: 8336569650889522289, guid: d7cadeac6e740474f90fcdd692580e4a, type: 3}
      propertyPath: m_LocalPosition.z
      value: 0
      objectReference: {fileID: 0}
    - target: {fileID: 8336569650889522289, guid: d7cadeac6e740474f90fcdd692580e4a, type: 3}
      propertyPath: m_LocalRotation.w
      value: 1
      objectReference: {fileID: 0}
    - target: {fileID: 8336569650889522289, guid: d7cadeac6e740474f90fcdd692580e4a, type: 3}
      propertyPath: m_LocalRotation.x
      value: 0
      objectReference: {fileID: 0}
    - target: {fileID: 8336569650889522289, guid: d7cadeac6e740474f90fcdd692580e4a, type: 3}
      propertyPath: m_LocalRotation.y
      value: 0
      objectReference: {fileID: 0}
    - target: {fileID: 8336569650889522289, guid: d7cadeac6e740474f90fcdd692580e4a, type: 3}
      propertyPath: m_LocalRotation.z
      value: 0
      objectReference: {fileID: 0}
    - target: {fileID: 8336569650889522289, guid: d7cadeac6e740474f90fcdd692580e4a, type: 3}
      propertyPath: m_AnchoredPosition.x
      value: 0
      objectReference: {fileID: 0}
    - target: {fileID: 8336569650889522289, guid: d7cadeac6e740474f90fcdd692580e4a, type: 3}
      propertyPath: m_AnchoredPosition.y
      value: 0
      objectReference: {fileID: 0}
    - target: {fileID: 8336569650889522289, guid: d7cadeac6e740474f90fcdd692580e4a, type: 3}
      propertyPath: m_LocalEulerAnglesHint.x
      value: 0
      objectReference: {fileID: 0}
    - target: {fileID: 8336569650889522289, guid: d7cadeac6e740474f90fcdd692580e4a, type: 3}
      propertyPath: m_LocalEulerAnglesHint.y
      value: 0
      objectReference: {fileID: 0}
    - target: {fileID: 8336569650889522289, guid: d7cadeac6e740474f90fcdd692580e4a, type: 3}
      propertyPath: m_LocalEulerAnglesHint.z
      value: 0
      objectReference: {fileID: 0}
    m_RemovedComponents: []
  m_SourcePrefab: {fileID: 100100000, guid: d7cadeac6e740474f90fcdd692580e4a, type: 3}
--- !u!224 &652053095 stripped
RectTransform:
  m_CorrespondingSourceObject: {fileID: 8336569650889522289, guid: d7cadeac6e740474f90fcdd692580e4a, type: 3}
  m_PrefabInstance: {fileID: 652053094}
  m_PrefabAsset: {fileID: 0}
--- !u!1 &652053096 stripped
GameObject:
  m_CorrespondingSourceObject: {fileID: 8336569650889522288, guid: d7cadeac6e740474f90fcdd692580e4a, type: 3}
  m_PrefabInstance: {fileID: 652053094}
  m_PrefabAsset: {fileID: 0}
--- !u!1001 &677645286
PrefabInstance:
  m_ObjectHideFlags: 0
  serializedVersion: 2
  m_Modification:
    m_TransformParent: {fileID: 0}
    m_Modifications:
    - target: {fileID: 2869551698884854424, guid: 264ece7fab8fe314f8e34f4488760a9b, type: 3}
      propertyPath: speed
      value: 1
      objectReference: {fileID: 0}
    - target: {fileID: 2869551698884854424, guid: 264ece7fab8fe314f8e34f4488760a9b, type: 3}
      propertyPath: m_Enabled
      value: 1
      objectReference: {fileID: 0}
    - target: {fileID: 2869551698884854424, guid: 264ece7fab8fe314f8e34f4488760a9b, type: 3}
      propertyPath: canBeLaunched
      value: 0
      objectReference: {fileID: 0}
    - target: {fileID: 2869551698884854425, guid: 264ece7fab8fe314f8e34f4488760a9b, type: 3}
      propertyPath: changeOnce
      value: 1
      objectReference: {fileID: 0}
    - target: {fileID: 2869551698884854425, guid: 264ece7fab8fe314f8e34f4488760a9b, type: 3}
      propertyPath: totalColors
      value: 2
      objectReference: {fileID: 0}
    - target: {fileID: 2869551698884854425, guid: 264ece7fab8fe314f8e34f4488760a9b, type: 3}
      propertyPath: currentColor.b
      value: 1
      objectReference: {fileID: 0}
    - target: {fileID: 2869551698884854425, guid: 264ece7fab8fe314f8e34f4488760a9b, type: 3}
      propertyPath: currentColor.g
      value: 1
      objectReference: {fileID: 0}
    - target: {fileID: 2869551698884854425, guid: 264ece7fab8fe314f8e34f4488760a9b, type: 3}
      propertyPath: currentColor.r
      value: 1
      objectReference: {fileID: 0}
    - target: {fileID: 2869551698884854425, guid: 264ece7fab8fe314f8e34f4488760a9b, type: 3}
      propertyPath: dontChangeColor
      value: 0
      objectReference: {fileID: 0}
    - target: {fileID: 2869551698884854425, guid: 264ece7fab8fe314f8e34f4488760a9b, type: 3}
      propertyPath: changeColorOneTime
      value: 1
      objectReference: {fileID: 0}
    - target: {fileID: 2869551698884854425, guid: 264ece7fab8fe314f8e34f4488760a9b, type: 3}
      propertyPath: colorOneFromManager
      value: 3
      objectReference: {fileID: 0}
    - target: {fileID: 2869551698884854425, guid: 264ece7fab8fe314f8e34f4488760a9b, type: 3}
      propertyPath: colorZeroFromManager
      value: 0
      objectReference: {fileID: 0}
    - target: {fileID: 2869551698884854429, guid: 264ece7fab8fe314f8e34f4488760a9b, type: 3}
      propertyPath: m_Materials.Array.data[0]
      value: 
      objectReference: {fileID: 2100000, guid: 8185bac226b0edb44bd9b6d8067a3ac8, type: 2}
    - target: {fileID: 2869551698884854431, guid: 264ece7fab8fe314f8e34f4488760a9b, type: 3}
      propertyPath: m_RootOrder
      value: 5
      objectReference: {fileID: 0}
    - target: {fileID: 2869551698884854431, guid: 264ece7fab8fe314f8e34f4488760a9b, type: 3}
      propertyPath: m_LocalPosition.x
      value: -10.5
      objectReference: {fileID: 0}
    - target: {fileID: 2869551698884854431, guid: 264ece7fab8fe314f8e34f4488760a9b, type: 3}
      propertyPath: m_LocalPosition.y
      value: 0
      objectReference: {fileID: 0}
    - target: {fileID: 2869551698884854431, guid: 264ece7fab8fe314f8e34f4488760a9b, type: 3}
      propertyPath: m_LocalPosition.z
      value: 0.5
      objectReference: {fileID: 0}
    - target: {fileID: 2869551698884854431, guid: 264ece7fab8fe314f8e34f4488760a9b, type: 3}
      propertyPath: m_LocalRotation.w
      value: 1
      objectReference: {fileID: 0}
    - target: {fileID: 2869551698884854431, guid: 264ece7fab8fe314f8e34f4488760a9b, type: 3}
      propertyPath: m_LocalRotation.x
      value: 0
      objectReference: {fileID: 0}
    - target: {fileID: 2869551698884854431, guid: 264ece7fab8fe314f8e34f4488760a9b, type: 3}
      propertyPath: m_LocalRotation.y
      value: 0
      objectReference: {fileID: 0}
    - target: {fileID: 2869551698884854431, guid: 264ece7fab8fe314f8e34f4488760a9b, type: 3}
      propertyPath: m_LocalRotation.z
      value: 0
      objectReference: {fileID: 0}
    - target: {fileID: 2869551698884854431, guid: 264ece7fab8fe314f8e34f4488760a9b, type: 3}
      propertyPath: m_LocalEulerAnglesHint.x
      value: 0
      objectReference: {fileID: 0}
    - target: {fileID: 2869551698884854431, guid: 264ece7fab8fe314f8e34f4488760a9b, type: 3}
      propertyPath: m_LocalEulerAnglesHint.y
      value: 0
      objectReference: {fileID: 0}
    - target: {fileID: 2869551698884854431, guid: 264ece7fab8fe314f8e34f4488760a9b, type: 3}
      propertyPath: m_LocalEulerAnglesHint.z
      value: 0
      objectReference: {fileID: 0}
    - target: {fileID: 2869551698884854434, guid: 264ece7fab8fe314f8e34f4488760a9b, type: 3}
      propertyPath: m_Name
      value: BallAndro (3)
      objectReference: {fileID: 0}
    m_RemovedComponents: []
  m_SourcePrefab: {fileID: 100100000, guid: 264ece7fab8fe314f8e34f4488760a9b, type: 3}
--- !u!1 &705507993
GameObject:
  m_ObjectHideFlags: 0
  m_CorrespondingSourceObject: {fileID: 0}
  m_PrefabInstance: {fileID: 0}
  m_PrefabAsset: {fileID: 0}
  serializedVersion: 6
  m_Component:
  - component: {fileID: 705507995}
  - component: {fileID: 705507994}
  m_Layer: 0
  m_Name: Directional Light
  m_TagString: Untagged
  m_Icon: {fileID: 0}
  m_NavMeshLayer: 0
  m_StaticEditorFlags: 0
  m_IsActive: 1
--- !u!108 &705507994
Light:
  m_ObjectHideFlags: 0
  m_CorrespondingSourceObject: {fileID: 0}
  m_PrefabInstance: {fileID: 0}
  m_PrefabAsset: {fileID: 0}
  m_GameObject: {fileID: 705507993}
  m_Enabled: 1
  serializedVersion: 10
  m_Type: 1
  m_Shape: 0
  m_Color: {r: 1, g: 0.95686275, b: 0.8392157, a: 1}
  m_Intensity: 0.25
  m_Range: 10
  m_SpotAngle: 30
  m_InnerSpotAngle: 21.80208
  m_CookieSize: 10
  m_Shadows:
    m_Type: 2
    m_Resolution: -1
    m_CustomResolution: -1
    m_Strength: 1
    m_Bias: 0.05
    m_NormalBias: 0.4
    m_NearPlane: 0.2
    m_CullingMatrixOverride:
      e00: 1
      e01: 0
      e02: 0
      e03: 0
      e10: 0
      e11: 1
      e12: 0
      e13: 0
      e20: 0
      e21: 0
      e22: 1
      e23: 0
      e30: 0
      e31: 0
      e32: 0
      e33: 1
    m_UseCullingMatrixOverride: 0
  m_Cookie: {fileID: 0}
  m_DrawHalo: 0
  m_Flare: {fileID: 0}
  m_RenderMode: 0
  m_CullingMask:
    serializedVersion: 2
    m_Bits: 4294967295
  m_RenderingLayerMask: 1
  m_Lightmapping: 1
  m_LightShadowCasterMode: 0
  m_AreaSize: {x: 1, y: 1}
  m_BounceIntensity: 1
  m_ColorTemperature: 6570
  m_UseColorTemperature: 0
  m_BoundingSphereOverride: {x: 0, y: 0, z: 0, w: 0}
  m_UseBoundingSphereOverride: 0
  m_UseViewFrustumForShadowCasterCull: 1
  m_ShadowRadius: 0
  m_ShadowAngle: 0
--- !u!4 &705507995
Transform:
  m_ObjectHideFlags: 0
  m_CorrespondingSourceObject: {fileID: 0}
  m_PrefabInstance: {fileID: 0}
  m_PrefabAsset: {fileID: 0}
  m_GameObject: {fileID: 705507993}
  m_LocalRotation: {x: 0.82724696, y: -0.14384572, z: 0.24567007, w: 0.48437294}
  m_LocalPosition: {x: 0, y: 87.49, z: 0}
  m_LocalScale: {x: 1, y: 1, z: 1}
  m_Children: []
  m_Father: {fileID: 0}
  m_RootOrder: 2
  m_LocalEulerAnglesHint: {x: 119.3, y: -33.08, z: 0}
--- !u!1 &730931984
GameObject:
  m_ObjectHideFlags: 0
  m_CorrespondingSourceObject: {fileID: 0}
  m_PrefabInstance: {fileID: 0}
  m_PrefabAsset: {fileID: 0}
  serializedVersion: 6
  m_Component:
  - component: {fileID: 730931985}
  m_Layer: 0
  m_Name: Obstacles
  m_TagString: Untagged
  m_Icon: {fileID: 0}
  m_NavMeshLayer: 0
  m_StaticEditorFlags: 0
  m_IsActive: 1
--- !u!4 &730931985
Transform:
  m_ObjectHideFlags: 0
  m_CorrespondingSourceObject: {fileID: 0}
  m_PrefabInstance: {fileID: 0}
  m_PrefabAsset: {fileID: 0}
  m_GameObject: {fileID: 730931984}
  m_LocalRotation: {x: 0, y: 0, z: 0, w: 1}
  m_LocalPosition: {x: 3.5790944, y: 35.09941, z: -24.413605}
  m_LocalScale: {x: 1, y: 1, z: 1}
  m_Children:
  - {fileID: 886077085}
  - {fileID: 1250323247}
  m_Father: {fileID: 0}
  m_RootOrder: 6
  m_LocalEulerAnglesHint: {x: 0, y: 0, z: 0}
--- !u!4 &886077085 stripped
Transform:
  m_CorrespondingSourceObject: {fileID: 8683705113243001524, guid: fafa252580c8196408d788be66476372, type: 3}
  m_PrefabInstance: {fileID: 986049843}
  m_PrefabAsset: {fileID: 0}
--- !u!1 &963194225
GameObject:
  m_ObjectHideFlags: 0
  m_CorrespondingSourceObject: {fileID: 0}
  m_PrefabInstance: {fileID: 0}
  m_PrefabAsset: {fileID: 0}
  serializedVersion: 6
  m_Component:
  - component: {fileID: 963194228}
  - component: {fileID: 963194227}
  - component: {fileID: 963194226}
  m_Layer: 0
  m_Name: Main Camera
  m_TagString: MainCamera
  m_Icon: {fileID: 0}
  m_NavMeshLayer: 0
  m_StaticEditorFlags: 0
  m_IsActive: 1
--- !u!81 &963194226
AudioListener:
  m_ObjectHideFlags: 0
  m_CorrespondingSourceObject: {fileID: 0}
  m_PrefabInstance: {fileID: 0}
  m_PrefabAsset: {fileID: 0}
  m_GameObject: {fileID: 963194225}
  m_Enabled: 1
--- !u!20 &963194227
Camera:
  m_ObjectHideFlags: 0
  m_CorrespondingSourceObject: {fileID: 0}
  m_PrefabInstance: {fileID: 0}
  m_PrefabAsset: {fileID: 0}
  m_GameObject: {fileID: 963194225}
  m_Enabled: 1
  serializedVersion: 2
  m_ClearFlags: 1
  m_BackGroundColor: {r: 0.19215687, g: 0.3019608, b: 0.4745098, a: 0}
  m_projectionMatrixMode: 1
  m_GateFitMode: 2
  m_FOVAxisMode: 0
  m_SensorSize: {x: 36, y: 24}
  m_LensShift: {x: 0, y: 0}
  m_FocalLength: 50
  m_NormalizedViewPortRect:
    serializedVersion: 2
    x: 0
    y: 0
    width: 1
    height: 1
  near clip plane: 0.3
  far clip plane: 1000
  field of view: 60
  orthographic: 0
  orthographic size: 5
  m_Depth: -1
  m_CullingMask:
    serializedVersion: 2
    m_Bits: 4294967295
  m_RenderingPath: -1
  m_TargetTexture: {fileID: 0}
  m_TargetDisplay: 0
  m_TargetEye: 3
  m_HDR: 1
  m_AllowMSAA: 1
  m_AllowDynamicResolution: 0
  m_ForceIntoRT: 0
  m_OcclusionCulling: 1
  m_StereoConvergence: 10
  m_StereoSeparation: 0.022
--- !u!4 &963194228
Transform:
  m_ObjectHideFlags: 0
  m_CorrespondingSourceObject: {fileID: 0}
  m_PrefabInstance: {fileID: 0}
  m_PrefabAsset: {fileID: 0}
  m_GameObject: {fileID: 963194225}
  m_LocalRotation: {x: 0.7071068, y: 0, z: 0, w: 0.7071068}
  m_LocalPosition: {x: 0, y: 46.24, z: 0}
  m_LocalScale: {x: 1, y: 1, z: 1}
  m_Children: []
  m_Father: {fileID: 0}
  m_RootOrder: 0
  m_LocalEulerAnglesHint: {x: 90, y: 0, z: 0}
--- !u!1001 &986049843
PrefabInstance:
  m_ObjectHideFlags: 0
  serializedVersion: 2
  m_Modification:
    m_TransformParent: {fileID: 730931985}
    m_Modifications:
    - target: {fileID: 8343313473734178830, guid: fafa252580c8196408d788be66476372, type: 3}
      propertyPath: m_Name
      value: obstacle
      objectReference: {fileID: 0}
    - target: {fileID: 8343313473734178830, guid: fafa252580c8196408d788be66476372, type: 3}
      propertyPath: m_IsActive
      value: 1
      objectReference: {fileID: 0}
    - target: {fileID: 8683705113243001524, guid: fafa252580c8196408d788be66476372, type: 3}
      propertyPath: m_RootOrder
      value: 0
      objectReference: {fileID: 0}
    - target: {fileID: 8683705113243001524, guid: fafa252580c8196408d788be66476372, type: 3}
      propertyPath: m_LocalScale.z
      value: 2
      objectReference: {fileID: 0}
    - target: {fileID: 8683705113243001524, guid: fafa252580c8196408d788be66476372, type: 3}
      propertyPath: m_LocalPosition.x
      value: -4.9
      objectReference: {fileID: 0}
    - target: {fileID: 8683705113243001524, guid: fafa252580c8196408d788be66476372, type: 3}
      propertyPath: m_LocalPosition.y
      value: -35.09941
      objectReference: {fileID: 0}
    - target: {fileID: 8683705113243001524, guid: fafa252580c8196408d788be66476372, type: 3}
      propertyPath: m_LocalPosition.z
      value: 24.9
      objectReference: {fileID: 0}
    - target: {fileID: 8683705113243001524, guid: fafa252580c8196408d788be66476372, type: 3}
      propertyPath: m_LocalRotation.w
      value: 0.92387956
      objectReference: {fileID: 0}
    - target: {fileID: 8683705113243001524, guid: fafa252580c8196408d788be66476372, type: 3}
      propertyPath: m_LocalRotation.x
      value: 0
      objectReference: {fileID: 0}
    - target: {fileID: 8683705113243001524, guid: fafa252580c8196408d788be66476372, type: 3}
      propertyPath: m_LocalRotation.y
      value: -0.38268343
      objectReference: {fileID: 0}
    - target: {fileID: 8683705113243001524, guid: fafa252580c8196408d788be66476372, type: 3}
      propertyPath: m_LocalRotation.z
      value: 0
      objectReference: {fileID: 0}
    - target: {fileID: 8683705113243001524, guid: fafa252580c8196408d788be66476372, type: 3}
      propertyPath: m_LocalEulerAnglesHint.x
      value: 0
      objectReference: {fileID: 0}
    - target: {fileID: 8683705113243001524, guid: fafa252580c8196408d788be66476372, type: 3}
      propertyPath: m_LocalEulerAnglesHint.y
      value: -45
      objectReference: {fileID: 0}
    - target: {fileID: 8683705113243001524, guid: fafa252580c8196408d788be66476372, type: 3}
      propertyPath: m_LocalEulerAnglesHint.z
      value: 0
      objectReference: {fileID: 0}
    m_RemovedComponents: []
  m_SourcePrefab: {fileID: 100100000, guid: fafa252580c8196408d788be66476372, type: 3}
--- !u!1001 &1250323246
PrefabInstance:
  m_ObjectHideFlags: 0
  serializedVersion: 2
  m_Modification:
    m_TransformParent: {fileID: 730931985}
    m_Modifications:
    - target: {fileID: 8343313473734178830, guid: fafa252580c8196408d788be66476372, type: 3}
      propertyPath: m_Name
      value: obstacle (1)
      objectReference: {fileID: 0}
    - target: {fileID: 8343313473734178830, guid: fafa252580c8196408d788be66476372, type: 3}
      propertyPath: m_IsActive
      value: 1
      objectReference: {fileID: 0}
    - target: {fileID: 8683705113243001524, guid: fafa252580c8196408d788be66476372, type: 3}
      propertyPath: m_RootOrder
      value: 1
      objectReference: {fileID: 0}
    - target: {fileID: 8683705113243001524, guid: fafa252580c8196408d788be66476372, type: 3}
      propertyPath: m_LocalScale.z
      value: 1
      objectReference: {fileID: 0}
    - target: {fileID: 8683705113243001524, guid: fafa252580c8196408d788be66476372, type: 3}
      propertyPath: m_LocalPosition.x
      value: -10.1
      objectReference: {fileID: 0}
    - target: {fileID: 8683705113243001524, guid: fafa252580c8196408d788be66476372, type: 3}
      propertyPath: m_LocalPosition.y
      value: -35.09941
      objectReference: {fileID: 0}
    - target: {fileID: 8683705113243001524, guid: fafa252580c8196408d788be66476372, type: 3}
      propertyPath: m_LocalPosition.z
      value: 18.2
      objectReference: {fileID: 0}
    - target: {fileID: 8683705113243001524, guid: fafa252580c8196408d788be66476372, type: 3}
      propertyPath: m_LocalRotation.w
      value: 0.92387956
      objectReference: {fileID: 0}
    - target: {fileID: 8683705113243001524, guid: fafa252580c8196408d788be66476372, type: 3}
      propertyPath: m_LocalRotation.x
      value: 0
      objectReference: {fileID: 0}
    - target: {fileID: 8683705113243001524, guid: fafa252580c8196408d788be66476372, type: 3}
      propertyPath: m_LocalRotation.y
      value: 0.38268343
      objectReference: {fileID: 0}
    - target: {fileID: 8683705113243001524, guid: fafa252580c8196408d788be66476372, type: 3}
      propertyPath: m_LocalRotation.z
      value: 0
      objectReference: {fileID: 0}
    - target: {fileID: 8683705113243001524, guid: fafa252580c8196408d788be66476372, type: 3}
      propertyPath: m_LocalEulerAnglesHint.x
      value: 0
      objectReference: {fileID: 0}
    - target: {fileID: 8683705113243001524, guid: fafa252580c8196408d788be66476372, type: 3}
      propertyPath: m_LocalEulerAnglesHint.y
      value: 45
      objectReference: {fileID: 0}
    - target: {fileID: 8683705113243001524, guid: fafa252580c8196408d788be66476372, type: 3}
      propertyPath: m_LocalEulerAnglesHint.z
      value: 0
      objectReference: {fileID: 0}
    m_RemovedComponents: []
  m_SourcePrefab: {fileID: 100100000, guid: fafa252580c8196408d788be66476372, type: 3}
--- !u!4 &1250323247 stripped
Transform:
  m_CorrespondingSourceObject: {fileID: 8683705113243001524, guid: fafa252580c8196408d788be66476372, type: 3}
  m_PrefabInstance: {fileID: 1250323246}
  m_PrefabAsset: {fileID: 0}
--- !u!1 &1538072842
GameObject:
  m_ObjectHideFlags: 0
  m_CorrespondingSourceObject: {fileID: 0}
  m_PrefabInstance: {fileID: 0}
  m_PrefabAsset: {fileID: 0}
  serializedVersion: 6
  m_Component:
  - component: {fileID: 1538072846}
  - component: {fileID: 1538072845}
  - component: {fileID: 1538072844}
  - component: {fileID: 1538072843}
  m_Layer: 5
  m_Name: Canvas
  m_TagString: Untagged
  m_Icon: {fileID: 0}
  m_NavMeshLayer: 0
  m_StaticEditorFlags: 0
  m_IsActive: 1
--- !u!114 &1538072843
MonoBehaviour:
  m_ObjectHideFlags: 0
  m_CorrespondingSourceObject: {fileID: 0}
  m_PrefabInstance: {fileID: 0}
  m_PrefabAsset: {fileID: 0}
  m_GameObject: {fileID: 1538072842}
  m_Enabled: 1
  m_EditorHideFlags: 0
  m_Script: {fileID: 11500000, guid: dc42784cf147c0c48a680349fa168899, type: 3}
  m_Name: 
  m_EditorClassIdentifier: 
  m_IgnoreReversedGraphics: 1
  m_BlockingObjects: 0
  m_BlockingMask:
    serializedVersion: 2
    m_Bits: 4294967295
--- !u!114 &1538072844
MonoBehaviour:
  m_ObjectHideFlags: 0
  m_CorrespondingSourceObject: {fileID: 0}
  m_PrefabInstance: {fileID: 0}
  m_PrefabAsset: {fileID: 0}
  m_GameObject: {fileID: 1538072842}
  m_Enabled: 1
  m_EditorHideFlags: 0
  m_Script: {fileID: 11500000, guid: 0cd44c1031e13a943bb63640046fad76, type: 3}
  m_Name: 
  m_EditorClassIdentifier: 
  m_UiScaleMode: 0
  m_ReferencePixelsPerUnit: 100
  m_ScaleFactor: 1
  m_ReferenceResolution: {x: 800, y: 600}
  m_ScreenMatchMode: 0
  m_MatchWidthOrHeight: 0
  m_PhysicalUnit: 3
  m_FallbackScreenDPI: 96
  m_DefaultSpriteDPI: 96
  m_DynamicPixelsPerUnit: 1
  m_PresetInfoIsWorld: 0
--- !u!223 &1538072845
Canvas:
  m_ObjectHideFlags: 0
  m_CorrespondingSourceObject: {fileID: 0}
  m_PrefabInstance: {fileID: 0}
  m_PrefabAsset: {fileID: 0}
  m_GameObject: {fileID: 1538072842}
  m_Enabled: 1
  serializedVersion: 3
  m_RenderMode: 0
  m_Camera: {fileID: 0}
  m_PlaneDistance: 100
  m_PixelPerfect: 0
  m_ReceivesEvents: 1
  m_OverrideSorting: 0
  m_OverridePixelPerfect: 0
  m_SortingBucketNormalizedSize: 0
  m_AdditionalShaderChannelsFlag: 0
  m_SortingLayerID: 0
  m_SortingOrder: 0
  m_TargetDisplay: 0
--- !u!224 &1538072846
RectTransform:
  m_ObjectHideFlags: 0
  m_CorrespondingSourceObject: {fileID: 0}
  m_PrefabInstance: {fileID: 0}
  m_PrefabAsset: {fileID: 0}
  m_GameObject: {fileID: 1538072842}
  m_LocalRotation: {x: 0, y: 0, z: 0, w: 1}
  m_LocalPosition: {x: 0, y: 0, z: 0}
  m_LocalScale: {x: 0, y: 0, z: 0}
  m_Children:
  - {fileID: 652053095}
  - {fileID: 525606413}
  m_Father: {fileID: 0}
  m_RootOrder: 8
  m_LocalEulerAnglesHint: {x: 0, y: 0, z: 0}
  m_AnchorMin: {x: 0, y: 0}
  m_AnchorMax: {x: 0, y: 0}
  m_AnchoredPosition: {x: 0, y: 0}
  m_SizeDelta: {x: 0, y: 0}
  m_Pivot: {x: 0, y: 0}
--- !u!1 &1690033814
GameObject:
  m_ObjectHideFlags: 0
  m_CorrespondingSourceObject: {fileID: 0}
  m_PrefabInstance: {fileID: 0}
  m_PrefabAsset: {fileID: 0}
  serializedVersion: 6
  m_Component:
  - component: {fileID: 1690033816}
  - component: {fileID: 1690033815}
  m_Layer: 0
  m_Name: LevelMusic
  m_TagString: Untagged
  m_Icon: {fileID: 0}
  m_NavMeshLayer: 0
  m_StaticEditorFlags: 0
  m_IsActive: 1
--- !u!114 &1690033815
MonoBehaviour:
  m_ObjectHideFlags: 0
  m_CorrespondingSourceObject: {fileID: 0}
  m_PrefabInstance: {fileID: 0}
  m_PrefabAsset: {fileID: 0}
  m_GameObject: {fileID: 1690033814}
  m_Enabled: 1
  m_EditorHideFlags: 0
  m_Script: {fileID: 11500000, guid: 9a6610d2e704f1648819acc8d7460285, type: 3}
  m_Name: 
  m_EditorClassIdentifier: 
  CollisionTag: 
  EventReference:
    Guid:
      Data1: -65917727
      Data2: 1168047244
      Data3: -814569294
      Data4: 1927641107
    Path: event:/Music/Level1/Basic Loop/Level1_Loop2D
  Event: 
  PlayEvent: 11
  StopEvent: 12
  AllowFadeout: 1
  TriggerOnce: 0
  Preload: 0
  Params: []
  OverrideAttenuation: 0
  OverrideMinDistance: 1
  OverrideMaxDistance: 20
--- !u!4 &1690033816
Transform:
  m_ObjectHideFlags: 0
  m_CorrespondingSourceObject: {fileID: 0}
  m_PrefabInstance: {fileID: 0}
  m_PrefabAsset: {fileID: 0}
  m_GameObject: {fileID: 1690033814}
  m_LocalRotation: {x: 0, y: 0, z: 0, w: 1}
  m_LocalPosition: {x: 960, y: 540, z: 0}
  m_LocalScale: {x: 1, y: 1, z: 1}
  m_Children: []
  m_Father: {fileID: 0}
  m_RootOrder: 11
  m_LocalEulerAnglesHint: {x: 0, y: 0, z: 0}
--- !u!1 &1781830539
GameObject:
  m_ObjectHideFlags: 0
  m_CorrespondingSourceObject: {fileID: 0}
  m_PrefabInstance: {fileID: 0}
  m_PrefabAsset: {fileID: 0}
  serializedVersion: 6
  m_Component:
  - component: {fileID: 1781830542}
  - component: {fileID: 1781830541}
  - component: {fileID: 1781830540}
  m_Layer: 0
  m_Name: EventSystem
  m_TagString: Untagged
  m_Icon: {fileID: 0}
  m_NavMeshLayer: 0
  m_StaticEditorFlags: 0
  m_IsActive: 1
--- !u!114 &1781830540
MonoBehaviour:
  m_ObjectHideFlags: 0
  m_CorrespondingSourceObject: {fileID: 0}
  m_PrefabInstance: {fileID: 0}
  m_PrefabAsset: {fileID: 0}
  m_GameObject: {fileID: 1781830539}
  m_Enabled: 1
  m_EditorHideFlags: 0
  m_Script: {fileID: 11500000, guid: 4f231c4fb786f3946a6b90b886c48677, type: 3}
  m_Name: 
  m_EditorClassIdentifier: 
  m_HorizontalAxis: Horizontal
  m_VerticalAxis: Vertical
  m_SubmitButton: Submit
  m_CancelButton: Cancel
  m_InputActionsPerSecond: 10
  m_RepeatDelay: 0.5
  m_ForceModuleActive: 0
--- !u!114 &1781830541
MonoBehaviour:
  m_ObjectHideFlags: 0
  m_CorrespondingSourceObject: {fileID: 0}
  m_PrefabInstance: {fileID: 0}
  m_PrefabAsset: {fileID: 0}
  m_GameObject: {fileID: 1781830539}
  m_Enabled: 1
  m_EditorHideFlags: 0
  m_Script: {fileID: 11500000, guid: 76c392e42b5098c458856cdf6ecaaaa1, type: 3}
  m_Name: 
  m_EditorClassIdentifier: 
  m_FirstSelected: {fileID: 0}
  m_sendNavigationEvents: 1
  m_DragThreshold: 10
--- !u!4 &1781830542
Transform:
  m_ObjectHideFlags: 0
  m_CorrespondingSourceObject: {fileID: 0}
  m_PrefabInstance: {fileID: 0}
  m_PrefabAsset: {fileID: 0}
  m_GameObject: {fileID: 1781830539}
  m_LocalRotation: {x: 0, y: 0, z: 0, w: 1}
  m_LocalPosition: {x: 0, y: 0, z: 0}
  m_LocalScale: {x: 1, y: 1, z: 1}
  m_Children: []
  m_Father: {fileID: 0}
  m_RootOrder: 9
  m_LocalEulerAnglesHint: {x: 0, y: 0, z: 0}
--- !u!1001 &2869551699252027452
PrefabInstance:
  m_ObjectHideFlags: 0
  serializedVersion: 2
  m_Modification:
    m_TransformParent: {fileID: 0}
    m_Modifications:
    - target: {fileID: 2869551698884854424, guid: 264ece7fab8fe314f8e34f4488760a9b, type: 3}
      propertyPath: speed
      value: 0.425
      objectReference: {fileID: 0}
    - target: {fileID: 2869551698884854424, guid: 264ece7fab8fe314f8e34f4488760a9b, type: 3}
      propertyPath: canBeLaunched
      value: 1
      objectReference: {fileID: 0}
    - target: {fileID: 2869551698884854425, guid: 264ece7fab8fe314f8e34f4488760a9b, type: 3}
      propertyPath: changeOnce
      value: 1
      objectReference: {fileID: 0}
    - target: {fileID: 2869551698884854425, guid: 264ece7fab8fe314f8e34f4488760a9b, type: 3}
      propertyPath: startColor
      value: 2
      objectReference: {fileID: 0}
    - target: {fileID: 2869551698884854425, guid: 264ece7fab8fe314f8e34f4488760a9b, type: 3}
      propertyPath: totalColors
      value: 1
      objectReference: {fileID: 0}
    - target: {fileID: 2869551698884854425, guid: 264ece7fab8fe314f8e34f4488760a9b, type: 3}
      propertyPath: currentColor.b
      value: 0.17590779
      objectReference: {fileID: 0}
    - target: {fileID: 2869551698884854425, guid: 264ece7fab8fe314f8e34f4488760a9b, type: 3}
      propertyPath: currentColor.g
      value: 0.17590779
      objectReference: {fileID: 0}
    - target: {fileID: 2869551698884854425, guid: 264ece7fab8fe314f8e34f4488760a9b, type: 3}
      propertyPath: currentColor.r
      value: 0.6320754
      objectReference: {fileID: 0}
    - target: {fileID: 2869551698884854425, guid: 264ece7fab8fe314f8e34f4488760a9b, type: 3}
      propertyPath: dontChangeColor
      value: 1
      objectReference: {fileID: 0}
    - target: {fileID: 2869551698884854425, guid: 264ece7fab8fe314f8e34f4488760a9b, type: 3}
      propertyPath: colorFadeDuration
      value: 1
      objectReference: {fileID: 0}
    - target: {fileID: 2869551698884854425, guid: 264ece7fab8fe314f8e34f4488760a9b, type: 3}
      propertyPath: changeColorOneTime
      value: 0
      objectReference: {fileID: 0}
    - target: {fileID: 2869551698884854425, guid: 264ece7fab8fe314f8e34f4488760a9b, type: 3}
      propertyPath: colorOneFromManager
      value: 1
      objectReference: {fileID: 0}
    - target: {fileID: 2869551698884854425, guid: 264ece7fab8fe314f8e34f4488760a9b, type: 3}
      propertyPath: colorTwoFromManager
      value: 2
      objectReference: {fileID: 0}
    - target: {fileID: 2869551698884854425, guid: 264ece7fab8fe314f8e34f4488760a9b, type: 3}
      propertyPath: colorZeroFromManager
      value: 1
      objectReference: {fileID: 0}
    - target: {fileID: 2869551698884854425, guid: 264ece7fab8fe314f8e34f4488760a9b, type: 3}
      propertyPath: colorThreeFromManager
      value: 3
      objectReference: {fileID: 0}
    - target: {fileID: 2869551698884854429, guid: 264ece7fab8fe314f8e34f4488760a9b, type: 3}
      propertyPath: m_Materials.Array.size
      value: 1
      objectReference: {fileID: 0}
    - target: {fileID: 2869551698884854429, guid: 264ece7fab8fe314f8e34f4488760a9b, type: 3}
      propertyPath: m_Materials.Array.data[0]
      value: 
      objectReference: {fileID: 2100000, guid: 8185bac226b0edb44bd9b6d8067a3ac8, type: 2}
    - target: {fileID: 2869551698884854429, guid: 264ece7fab8fe314f8e34f4488760a9b, type: 3}
      propertyPath: m_Materials.Array.data[1]
      value: 
      objectReference: {fileID: 2100000, guid: c98adfafaed026348bd3de6c7e2f789a, type: 2}
    - target: {fileID: 2869551698884854431, guid: 264ece7fab8fe314f8e34f4488760a9b, type: 3}
      propertyPath: m_RootOrder
      value: 3
      objectReference: {fileID: 0}
    - target: {fileID: 2869551698884854431, guid: 264ece7fab8fe314f8e34f4488760a9b, type: 3}
      propertyPath: m_LocalScale.x
      value: 5
      objectReference: {fileID: 0}
    - target: {fileID: 2869551698884854431, guid: 264ece7fab8fe314f8e34f4488760a9b, type: 3}
      propertyPath: m_LocalScale.y
      value: 5
      objectReference: {fileID: 0}
    - target: {fileID: 2869551698884854431, guid: 264ece7fab8fe314f8e34f4488760a9b, type: 3}
      propertyPath: m_LocalScale.z
      value: 5
      objectReference: {fileID: 0}
    - target: {fileID: 2869551698884854431, guid: 264ece7fab8fe314f8e34f4488760a9b, type: 3}
      propertyPath: m_LocalPosition.x
      value: -0.44
      objectReference: {fileID: 0}
    - target: {fileID: 2869551698884854431, guid: 264ece7fab8fe314f8e34f4488760a9b, type: 3}
      propertyPath: m_LocalPosition.y
      value: -1
      objectReference: {fileID: 0}
    - target: {fileID: 2869551698884854431, guid: 264ece7fab8fe314f8e34f4488760a9b, type: 3}
      propertyPath: m_LocalPosition.z
      value: 11.1
      objectReference: {fileID: 0}
    - target: {fileID: 2869551698884854431, guid: 264ece7fab8fe314f8e34f4488760a9b, type: 3}
      propertyPath: m_LocalRotation.w
      value: 1
      objectReference: {fileID: 0}
    - target: {fileID: 2869551698884854431, guid: 264ece7fab8fe314f8e34f4488760a9b, type: 3}
      propertyPath: m_LocalRotation.x
      value: 0
      objectReference: {fileID: 0}
    - target: {fileID: 2869551698884854431, guid: 264ece7fab8fe314f8e34f4488760a9b, type: 3}
      propertyPath: m_LocalRotation.y
      value: 0
      objectReference: {fileID: 0}
    - target: {fileID: 2869551698884854431, guid: 264ece7fab8fe314f8e34f4488760a9b, type: 3}
      propertyPath: m_LocalRotation.z
      value: 0
      objectReference: {fileID: 0}
    - target: {fileID: 2869551698884854431, guid: 264ece7fab8fe314f8e34f4488760a9b, type: 3}
      propertyPath: m_LocalEulerAnglesHint.x
      value: 0
      objectReference: {fileID: 0}
    - target: {fileID: 2869551698884854431, guid: 264ece7fab8fe314f8e34f4488760a9b, type: 3}
      propertyPath: m_LocalEulerAnglesHint.y
      value: 0
      objectReference: {fileID: 0}
    - target: {fileID: 2869551698884854431, guid: 264ece7fab8fe314f8e34f4488760a9b, type: 3}
      propertyPath: m_LocalEulerAnglesHint.z
      value: 0
      objectReference: {fileID: 0}
    - target: {fileID: 2869551698884854434, guid: 264ece7fab8fe314f8e34f4488760a9b, type: 3}
      propertyPath: m_Name
      value: BallAndro
      objectReference: {fileID: 0}
    m_RemovedComponents: []
  m_SourcePrefab: {fileID: 100100000, guid: 264ece7fab8fe314f8e34f4488760a9b, type: 3}
